<svg width="48" height="48" viewBox="0 0 48 48" fill="none" xmlns="http://www.w3.org/2000/svg">
<path d="M10.5 7.5V37.5M10.5 44.25C10.5 44.8467 10.7371 45.419 11.159 45.841C11.581 46.2629 12.1533 46.5 12.75 46.5H35.25C35.8467 46.5 36.419 46.2629 36.841 45.841C37.2629 45.419 37.5 44.8467 37.5 44.25V37.5H10.5V44.25ZM37.5 3.75C37.5 3.15326 37.2629 2.58097 36.841 2.15901C36.419 1.73705 35.8467 1.5 35.25 1.5H12.75C12.1533 1.5 11.581 1.73705 11.159 2.15901C10.7371 2.58097 10.5 3.15326 10.5 3.75V7.5H37.5V3.75ZM37.5 37.5V7.5V37.5Z" stroke="#379683" stroke-width="2" stroke-linecap="round" stroke-linejoin="round"/>
<path d="M24 43.5C24.8284 43.5 25.5 42.8284 25.5 42C25.5 41.1716 24.8284 40.5 24 40.5C23.1716 40.5 22.5 41.1716 22.5 42C22.5 42.8284 23.1716 43.5 24 43.5Z" stroke="#379683" stroke-width="2" stroke-linecap="round" stroke-linejoin="round"/>
</svg>
